sum10b/simulation/qsim/sum10b.msim.vcd
$comment
	File created using the following command:
		vcd file sum10b.msim.vcd -direction
$end
$date
	Wed Sep 05 16:10:48 2018
$end
$version
	ModelSim Version 10.1d
$end
$timescale
	1ps
$end
$scope module sum10b_vlg_vec_tst $end
$var reg 10 ! m [9:0] $end
$var reg 10 " n [9:0] $end
$var wire 1 # s [10] $end
$var wire 1 $ s [9] $end
$var wire 1 % s [8] $end
$var wire 1 & s [7] $end
$var wire 1 ' s [6] $end
$var wire 1 ( s [5] $end
$var wire 1 ) s [4] $end
$var wire 1 * s [3] $end
$var wire 1 + s [2] $end
$var wire 1 , s [1] $end
$var wire 1 - s [0] $end
$var wire 1 . sampler $end
$scope module i1 $end
$var wire 1 / gnd $end
$var wire 1 0 vcc $end
$var wire 1 1 unknown $end
$var tri1 1 2 devclrn $end
$var tri1 1 3 devpor $end
$var tri1 1 4 devoe $end
$var wire 1 5 s[0]~output_o $end
$var wire 1 6 s[1]~output_o $end
$var wire 1 7 s[2]~output_o $end
$var wire 1 8 s[3]~output_o $end
$var wire 1 9 s[4]~output_o $end
$var wire 1 : s[5]~output_o $end
$var wire 1 ; s[6]~output_o $end
$var wire 1 < s[7]~output_o $end
$var wire 1 = s[8]~output_o $end
$var wire 1 > s[9]~output_o $end
$var wire 1 ? s[10]~output_o $end
$var wire 1 @ n[0]~input_o $end
$var wire 1 A m[0]~input_o $end
$var wire 1 B ha_0|sum~combout $end
$var wire 1 C ha_0|cout~combout $end
$var wire 1 D m[1]~input_o $end
$var wire 1 E n[1]~input_o $end
$var wire 1 F fa_1|sum~1_cout $end
$var wire 1 G fa_1|sum~2_combout $end
$var wire 1 H m[2]~input_o $end
$var wire 1 I n[2]~input_o $end
$var wire 1 J fa_1|sum~3 $end
$var wire 1 K fa_1|sum~4_combout $end
$var wire 1 L n[3]~input_o $end
$var wire 1 M m[3]~input_o $end
$var wire 1 N fa_1|sum~5 $end
$var wire 1 O fa_1|sum~6_combout $end
$var wire 1 P n[4]~input_o $end
$var wire 1 Q m[4]~input_o $end
$var wire 1 R fa_1|sum~7 $end
$var wire 1 S fa_1|sum~8_combout $end
$var wire 1 T n[5]~input_o $end
$var wire 1 U m[5]~input_o $end
$var wire 1 V fa_1|sum~9 $end
$var wire 1 W fa_1|sum~10_combout $end
$var wire 1 X m[6]~input_o $end
$var wire 1 Y n[6]~input_o $end
$var wire 1 Z fa_1|sum~11 $end
$var wire 1 [ fa_1|sum~12_combout $end
$var wire 1 \ m[7]~input_o $end
$var wire 1 ] n[7]~input_o $end
$var wire 1 ^ fa_1|sum~13 $end
$var wire 1 _ fa_1|sum~14_combout $end
$var wire 1 ` m[8]~input_o $end
$var wire 1 a n[8]~input_o $end
$var wire 1 b fa_1|sum~15 $end
$var wire 1 c fa_1|sum~16_combout $end
$var wire 1 d m[9]~input_o $end
$var wire 1 e n[9]~input_o $end
$var wire 1 f fa_1|sum~17 $end
$var wire 1 g fa_1|sum~18_combout $end
$var wire 1 h fa_1|sum~19 $end
$var wire 1 i fa_1|sum~20_combout $end
$upscope $end
$upscope $end
$enddefinitions $end
#0
$dumpvars
b1 !
b1 "
0-
1,
0+
0*
0)
0(
0'
0&
0%
0$
0#
x.
0/
10
x1
12
13
14
05
16
07
08
09
0:
0;
0<
0=
0>
0?
1@
1A
0B
1C
0D
0E
0F
1G
0H
0I
1J
0K
0L
0M
0N
0O
0P
0Q
1R
0S
0T
0U
0V
0W
0X
0Y
1Z
0[
0\
0]
0^
0_
0`
0a
1b
0c
0d
0e
0f
0g
1h
0i
$end
#60000
b11 !
b10 !
0A
1D
0.
0C
0J
1B
0G
1J
15
06
1-
0,
1G
1K
16
17
1,
1+
0K
07
0+
#110000
b11 !
1A
1.
1C
0B
0J
05
0-
0G
06
0,
1K
17
1+
#170000
b111 !
b101 !
b100 !
0A
0D
1H
0.
0C
1J
1N
1B
1G
0K
0N
15
16
07
1-
1,
0+
0G
1K
1O
06
17
18
0,
1+
1*
0O
08
0*
#240000
b1000100 !
b1100100 !
1U
1X
1.
1W
1[
1:
1;
1(
1'
#300000
b1000000001 "
b1100000001 "
b1110000001 "
b1111000001 "
b1111100001 "
b1111110001 "
b1111111001 "
b1111111101 "
b1111111111 "
b1100000 !
b1100001 !
b100001 !
b1 !
1A
0H
0U
0X
1E
1I
1L
1P
1T
1Y
1]
1a
1e
0.
1C
1F
0B
1O
1S
1_
1c
1g
0J
05
18
19
1<
1=
1>
0-
1*
1)
1&
1%
1$
1N
0K
0R
07
0+
0O
1V
08
0*
0S
0Z
09
0)
0W
1^
0:
0(
0[
0b
0;
0'
0_
1f
0<
0&
0c
0h
0=
0%
0g
0>
0$
1i
1?
1#
#350000
b1001 !
b1011 !
b1010 !
0A
1D
1M
1.
0C
1B
1G
1O
15
16
18
1-
1,
1*
0G
06
0,
#420000
b10 !
b0 !
0D
0M
0.
1J
1G
0O
0N
16
08
1,
0*
1K
1R
17
1+
1O
0V
18
1*
1S
1Z
19
1)
1W
0^
1:
1(
1[
1b
1;
1'
1_
0f
1<
1&
1c
1h
1=
1%
1g
1>
1$
0i
0?
0#
#580000
b1111111110 "
b111111110 "
b11111110 "
b1111110 "
b111110 "
b11110 "
b1110 "
b110 "
b10 "
b0 "
0@
0E
0I
0L
0P
0T
0Y
0]
0a
0e
1.
0F
0B
0K
0O
0S
0W
0[
0_
0c
0g
05
07
08
09
0:
0;
0<
0=
0>
0-
0+
0*
0)
0(
0'
0&
0%
0$
0G
06
0,
