exercicio01_beta/simulation/qsim/exercicio01.msim.vcd
$comment
	File created using the following command:
		vcd file exercicio01.msim.vcd -direction
$end
$date
	Wed Oct 10 09:56:08 2018
$end
$version
	ModelSim Version 10.1d
$end
$timescale
	1ps
$end
$scope module exercicio01_vlg_vec_tst $end
$var reg 1 ! data0 $end
$var reg 1 " data1 $end
$var reg 1 # data2 $end
$var reg 1 $ data3 $end
$var reg 1 % data4 $end
$var reg 1 & data5 $end
$var reg 1 ' data6 $end
$var reg 1 ( data7 $end
$var reg 1 ) data8 $end
$var reg 1 * data9 $end
$var reg 1 + key $end
$var reg 1 , push_button $end
$var reg 1 - rst $end
$var reg 1 . signal $end
$var wire 1 / s0 $end
$var wire 1 0 s1 $end
$var wire 1 1 s2 $end
$var wire 1 2 s3 $end
$var wire 1 3 s4 $end
$var wire 1 4 s5 $end
$var wire 1 5 s6 $end
$var wire 1 6 s7 $end
$var wire 1 7 s8 $end
$var wire 1 8 s9 $end
$var wire 1 9 sginal_nor $end
$var wire 1 : signal_T $end
$var wire 1 ; sampler $end
$scope module i1 $end
$var wire 1 < gnd $end
$var wire 1 = vcc $end
$var wire 1 > unknown $end
$var tri1 1 ? devclrn $end
$var tri1 1 @ devpor $end
$var tri1 1 A devoe $end
$var wire 1 B s9~output_o $end
$var wire 1 C s8~output_o $end
$var wire 1 D s7~output_o $end
$var wire 1 E s6~output_o $end
$var wire 1 F s5~output_o $end
$var wire 1 G s4~output_o $end
$var wire 1 H s3~output_o $end
$var wire 1 I s2~output_o $end
$var wire 1 J s1~output_o $end
$var wire 1 K s0~output_o $end
$var wire 1 L sginal_nor~output_o $end
$var wire 1 M signal_T~output_o $end
$var wire 1 N signal~input_o $end
$var wire 1 O push_button~input_o $end
$var wire 1 P rst~input_o $end
$var wire 1 Q key~input_o $end
$var wire 1 R data7~input_o $end
$var wire 1 S inst4|ff7|q~0_combout $end
$var wire 1 T data5~input_o $end
$var wire 1 U inst4|ff5|q~0_combout $end
$var wire 1 V data4~input_o $end
$var wire 1 W inst4|ff4|q~0_combout $end
$var wire 1 X data1~input_o $end
$var wire 1 Y inst4|ff1|q~0_combout $end
$var wire 1 Z signal~inputclkctrl_outclk $end
$var wire 1 [ data0~input_o $end
$var wire 1 \ inst4|ff0|q~0_combout $end
$var wire 1 ] inst4|ff0|q~_wirecell_combout $end
$var wire 1 ^ inst4|ff0|q~q $end
$var wire 1 _ inst17|sum|fa_1|s_cout~0_combout $end
$var wire 1 ` inst4|ff1|q~q $end
$var wire 1 a data2~input_o $end
$var wire 1 b inst4|ff2|q~0_combout $end
$var wire 1 c inst17|sum|fa_2|s_cout~0_combout $end
$var wire 1 d inst4|ff2|q~q $end
$var wire 1 e data3~input_o $end
$var wire 1 f inst4|ff3|q~0_combout $end
$var wire 1 g inst17|sum|fa_3|s_cout~0_combout $end
$var wire 1 h inst4|ff3|q~q $end
$var wire 1 i inst15~0_combout $end
$var wire 1 j inst17|sum|fa_4|s_cout~0_combout $end
$var wire 1 k inst4|ff4|q~q $end
$var wire 1 l inst17|sum|fa_5|s_cout~0_combout $end
$var wire 1 m inst4|ff5|q~q $end
$var wire 1 n data6~input_o $end
$var wire 1 o inst4|ff6|q~0_combout $end
$var wire 1 p inst17|sum|fa_6|s_cout~0_combout $end
$var wire 1 q inst4|ff6|q~q $end
$var wire 1 r inst15~1_combout $end
$var wire 1 s inst17|sum|fa_7|s_cout~0_combout $end
$var wire 1 t inst4|ff7|q~q $end
$var wire 1 u data8~input_o $end
$var wire 1 v inst4|ff8|q~0_combout $end
$var wire 1 w inst17|sum|fa_8|s_cout~0_combout $end
$var wire 1 x inst4|ff8|q~q $end
$var wire 1 y inst15~combout $end
$var wire 1 z inst10~0_combout $end
$var wire 1 { inst10~q $end
$var wire 1 | data9~input_o $end
$var wire 1 } inst4|ff9|q~0_combout $end
$var wire 1 ~ inst17|sum|fa_9|sum~0_combout $end
$var wire 1 !! inst4|ff9|q~q $end
$var wire 1 "! inst3~0_combout $end
$var wire 1 #! inst3~q $end
$var wire 1 $! inst1|inst2|s1 [9] $end
$var wire 1 %! inst1|inst2|s1 [8] $end
$var wire 1 &! inst1|inst2|s1 [7] $end
$var wire 1 '! inst1|inst2|s1 [6] $end
$var wire 1 (! inst1|inst2|s1 [5] $end
$var wire 1 )! inst1|inst2|s1 [4] $end
$var wire 1 *! inst1|inst2|s1 [3] $end
$var wire 1 +! inst1|inst2|s1 [2] $end
$var wire 1 ,! inst1|inst2|s1 [1] $end
$var wire 1 -! inst1|inst2|s1 [0] $end
$var wire 1 .! inst1|inst7|s [9] $end
$var wire 1 /! inst1|inst7|s [8] $end
$var wire 1 0! inst1|inst7|s [7] $end
$var wire 1 1! inst1|inst7|s [6] $end
$var wire 1 2! inst1|inst7|s [5] $end
$var wire 1 3! inst1|inst7|s [4] $end
$var wire 1 4! inst1|inst7|s [3] $end
$var wire 1 5! inst1|inst7|s [2] $end
$var wire 1 6! inst1|inst7|s [1] $end
$var wire 1 7! inst1|inst7|s [0] $end
$var wire 1 8! inst1|inst|s [9] $end
$var wire 1 9! inst1|inst|s [8] $end
$var wire 1 :! inst1|inst|s [7] $end
$var wire 1 ;! inst1|inst|s [6] $end
$var wire 1 <! inst1|inst|s [5] $end
$var wire 1 =! inst1|inst|s [4] $end
$var wire 1 >! inst1|inst|s [3] $end
$var wire 1 ?! inst1|inst|s [2] $end
$var wire 1 @! inst1|inst|s [1] $end
$var wire 1 A! inst1|inst|s [0] $end
$var wire 1 B! inst1|inst6|s [9] $end
$var wire 1 C! inst1|inst6|s [8] $end
$var wire 1 D! inst1|inst6|s [7] $end
$var wire 1 E! inst1|inst6|s [6] $end
$var wire 1 F! inst1|inst6|s [5] $end
$var wire 1 G! inst1|inst6|s [4] $end
$var wire 1 H! inst1|inst6|s [3] $end
$var wire 1 I! inst1|inst6|s [2] $end
$var wire 1 J! inst1|inst6|s [1] $end
$var wire 1 K! inst1|inst6|s [0] $end
$var wire 1 L! inst1|inst2|s0 [9] $end
$var wire 1 M! inst1|inst2|s0 [8] $end
$var wire 1 N! inst1|inst2|s0 [7] $end
$var wire 1 O! inst1|inst2|s0 [6] $end
$var wire 1 P! inst1|inst2|s0 [5] $end
$var wire 1 Q! inst1|inst2|s0 [4] $end
$var wire 1 R! inst1|inst2|s0 [3] $end
$var wire 1 S! inst1|inst2|s0 [2] $end
$var wire 1 T! inst1|inst2|s0 [1] $end
$var wire 1 U! inst1|inst2|s0 [0] $end
$upscope $end
$upscope $end
$enddefinitions $end
#0
$dumpvars
1!
1"
1#
0$
0%
0&
0'
0(
0)
0*
0+
0,
0-
0.
0/
00
01
02
03
04
05
06
07
08
19
0:
x;
0<
1=
x>
1?
1@
1A
0B
0C
0D
0E
0F
0G
0H
0I
0J
0K
1L
0M
0N
0O
0P
0Q
0R
0S
0T
0U
0V
0W
1X
0Y
0Z
1[
0\
1]
0^
1_
0`
1a
0b
1c
0d
0e
0f
1g
0h
1i
1j
0k
1l
0m
0n
0o
1p
0q
1r
1s
0t
0u
0v
1w
0x
0y
1z
0{
0|
0}
1~
0!!
1"!
0#!
x-!
x,!
x+!
x*!
x)!
x(!
x'!
x&!
x%!
x$!
07!
06!
05!
04!
03!
02!
01!
00!
0/!
0.!
xA!
x@!
x?!
x>!
x=!
x<!
x;!
x:!
x9!
x8!
0K!
0J!
0I!
0H!
0G!
0F!
0E!
0D!
0C!
0B!
xU!
xT!
xS!
xR!
xQ!
xP!
xO!
xN!
xM!
xL!
$end
#10000
1-
1P
0;
#70000
1,
1O
1;
xB!
x.!
08!
x/!
xC!
09!
xE!
x1!
0;!
xH!
x4!
0>!
x5!
xI!
1?!
x7!
xK!
1A!
xJ!
x6!
1@!
x3!
xG!
0=!
x2!
xF!
0<!
xD!
x0!
0:!
x}
0L!
xv
0M!
xo
0O!
xf
0R!
xb
1S!
x\
1U!
xY
1T!
xW
0Q!
xU
0P!
xS
0N!
0B!
0C!
0E!
0H!
1I!
1K!
1J!
0G!
0F!
0D!
0}
0v
0o
0f
1b
1\
1Y
0W
0U
0S
#80000
0,
0O
0;
#110000
1+
1Q
1;
0$!
0%!
0'!
0*!
1+!
1-!
1,!
0)!
0(!
0&!
#160000
0"
0X
0;
#190000
1,
1O
1;
0.!
0/!
01!
04!
15!
17!
16!
0@!
03!
02!
00!
0,!
06!
#200000
0,
0O
0;
#210000
1.
1N
1Z
1;
1d
1`
1#!
1^
0i
0g
0"!
0]
1I
1J
1M
1K
11
10
1:
1/
0r
0p
0l
0j
0~
1y
0w
0s
1"!
0L
09
#220000
0.
0N
0Z
0;
#230000
0+
1.
0Q
1N
1Z
1;
0T!
0^
0_
1]
0K
0/
#240000
0.
0N
0Z
0;
#250000
1.
1N
1Z
1;
0`
1^
0]
0J
1K
00
1/
#260000
0.
0N
0Z
0;
#270000
1.
1N
1Z
1;
0^
0c
1_
1]
0K
0/
#280000
0.
0N
0Z
0;
#290000
1.
1N
1Z
1;
0d
1`
1^
0]
0I
1J
1K
01
10
1/
#300000
0.
0N
0Z
0;
#310000
1.
1N
1Z
1;
0^
0_
1]
0K
0/
#320000
0.
0N
0Z
0;
#330000
1.
1N
1Z
1;
0`
1^
0]
0J
1K
00
1/
#340000
0.
0N
0Z
0;
#350000
0#
0!
1.
0a
0[
1N
1Z
1;
0^
1i
1g
1c
1_
1]
0K
0/
1r
1p
1l
1j
1~
0y
1w
1s
0"!
1L
19
1{
0z
0Y
#360000
0.
0N
0Z
0;
#370000
1.
1N
1Z
1;
1d
0#!
1^
0i
0g
1"!
0_
0]
1I
0M
1K
11
0:
1/
0r
0p
0l
0j
0~
1y
0w
0s
0"!
0L
09
#380000
0.
0N
0Z
0;
#390000
1.
1N
1Z
1;
0^
0c
1_
1]
0K
0/
#400000
0.
0N
0Z
0;
#410000
1.
1N
1Z
1;
0d
1`
1^
0]
0I
1J
1K
01
10
1/
#420000
0.
0N
0Z
0;
#430000
1.
1N
1Z
1;
0^
0_
1]
0K
0/
#440000
0.
0N
0Z
0;
#450000
1.
1N
1Z
1;
0`
1^
0]
0J
1K
00
1/
#460000
0.
0N
0Z
0;
#470000
1.
1N
1Z
1;
0^
1i
1g
1c
1_
1]
0K
0/
1r
1p
1l
1j
1~
0y
1w
1s
1"!
1L
19
0{
1z
1Y
#480000
0.
0N
0Z
0;
#490000
1.
1N
1Z
1;
1d
1`
1#!
1^
0i
0g
0"!
0]
1I
1J
1M
1K
11
10
1:
1/
0r
0p
0l
0j
0~
1y
0w
0s
1"!
0L
09
#500000
0.
0N
0Z
0;
#510000
1.
1N
1Z
1;
0^
0_
1]
0K
0/
#520000
0.
0N
0Z
0;
#530000
1.
1N
1Z
1;
0`
1^
0]
0J
1K
00
1/
#540000
0.
0N
0Z
0;
#550000
1.
1N
1Z
1;
0^
0c
1_
1]
0K
0/
#560000
0.
0N
0Z
0;
#570000
1"
1.
1X
1N
1Z
1;
0d
1`
1^
0]
0I
1J
1K
01
10
1/
#580000
0.
0N
0Z
0;
#590000
1.
1N
1Z
1;
0^
0_
1]
0K
0/
#600000
0.
0N
0Z
0;
#610000
1.
1N
1Z
1;
0`
1^
0]
0J
1K
00
1/
#620000
0.
0N
0Z
0;
#630000
1,
1.
1O
1N
1Z
1;
0?!
0A!
0J!
1@!
0S!
0U!
0Y
1T!
0I!
0K!
1J!
0b
0\
1Y
0^
1i
1g
1c
1_
1]
0K
0/
1r
1p
1l
1j
1~
0y
1w
1s
0"!
1L
19
1{
0z
1b
1\
0Y
#640000
0,
0.
0O
0N
0Z
0;
#650000
1.
1N
1Z
1;
1d
0#!
1^
0i
0g
1"!
0_
0]
1I
0M
1K
11
0:
1/
0r
0p
0l
0j
0~
1y
0w
0s
0"!
0L
09
#660000
0.
0N
0Z
0;
#670000
1+
1.
1Q
1N
1Z
1;
0+!
0-!
1,!
0^
0c
1_
1]
0K
0/
#680000
0.
0N
0Z
0;
#690000
1.
1N
1Z
1;
0d
1`
1^
0]
0I
1J
1K
01
10
1/
#700000
1!
0.
1[
0N
0Z
0;
#710000
1.
1N
1Z
1;
0^
0_
1]
0K
0/
#720000
0.
0N
0Z
0;
#730000
1.
1N
1Z
1;
0`
1^
0]
0J
1K
00
1/
#740000
1,
0.
1O
0N
0Z
0;
05!
07!
1A!
16!
0b
0\
1-!
1Y
17!
1\
#750000
0,
1.
0O
1N
1Z
1;
0^
1i
1g
1c
1_
1]
0K
0/
1r
1p
1l
1j
1~
0y
1w
1s
1"!
1L
19
0{
1z
0\
#760000
0.
0N
0Z
0;
#770000
1.
1N
1Z
1;
1`
1#!
0i
0g
0c
0_
0"!
1J
1M
10
1:
0r
0p
0l
0j
0~
1y
0w
0s
1"!
0L
09
#780000
0.
0N
0Z
0;
#790000
0+
1.
0Q
1N
1Z
1;
1U!
0`
1^
0]
0J
1K
00
1/
#800000
0.
0N
0Z
0;
#810000
1.
1N
1Z
1;
0^
1i
1g
1c
1_
1]
0K
0/
1r
1p
1l
1j
1~
0y
1w
1s
0"!
1L
19
1{
0z
1\
#820000
0.
0N
0Z
0;
#830000
1.
1N
1Z
1;
1`
0#!
1^
0i
0g
0c
1"!
0]
1J
0M
1K
10
0:
1/
0r
0p
0l
0j
0~
1y
0w
0s
0"!
0L
09
#840000
0.
0N
0Z
0;
#850000
1.
1N
1Z
1;
0^
0_
1]
0K
0/
#860000
0.
0N
0Z
0;
#870000
1.
1N
1Z
1;
0`
1^
0]
0J
1K
00
1/
#880000
0.
0N
0Z
0;
#890000
1.
1N
1Z
1;
0^
1i
1g
1c
1_
1]
0K
0/
1r
1p
1l
1j
1~
0y
1w
1s
1"!
1L
19
0{
1z
0\
#900000
0.
0N
0Z
0;
#910000
1.
1N
1Z
1;
1`
1#!
0i
0g
0c
0_
0"!
1J
1M
10
1:
0r
0p
0l
0j
0~
1y
0w
0s
1"!
0L
09
#920000
0.
0N
0Z
0;
#930000
1.
1N
1Z
1;
0`
1^
0]
0J
1K
00
1/
#940000
0.
0N
0Z
0;
#950000
1.
1N
1Z
1;
0^
1i
1g
1c
1_
1]
0K
0/
1r
1p
1l
1j
1~
0y
1w
1s
0"!
1L
19
1{
0z
1\
#960000
0.
0N
0Z
0;
#970000
1.
1N
1Z
1;
1`
0#!
1^
0i
0g
0c
1"!
0]
1J
0M
1K
10
0:
1/
0r
0p
0l
0j
0~
1y
0w
0s
0"!
0L
09
#980000
0.
0N
0Z
0;
#990000
1.
1N
1Z
1;
0^
0_
1]
0K
0/
