reg6b_structural/simulation/qsim/reg6b.msim.vcd
$comment
	File created using the following command:
		vcd file reg6b.msim.vcd -direction
$end
$date
	Thu Sep 06 12:02:42 2018
$end
$version
	ModelSim Version 10.1d
$end
$timescale
	1ps
$end
$scope module reg6b_vlg_vec_tst $end
$var reg 1 ! ck $end
$var reg 6 " d [5:0] $end
$var reg 1 # rst $end
$var wire 1 $ q [5] $end
$var wire 1 % q [4] $end
$var wire 1 & q [3] $end
$var wire 1 ' q [2] $end
$var wire 1 ( q [1] $end
$var wire 1 ) q [0] $end
$var wire 1 * sampler $end
$scope module i1 $end
$var wire 1 + gnd $end
$var wire 1 , vcc $end
$var wire 1 - unknown $end
$var tri1 1 . devclrn $end
$var tri1 1 / devpor $end
$var tri1 1 0 devoe $end
$var wire 1 1 q[0]~output_o $end
$var wire 1 2 q[1]~output_o $end
$var wire 1 3 q[2]~output_o $end
$var wire 1 4 q[3]~output_o $end
$var wire 1 5 q[4]~output_o $end
$var wire 1 6 q[5]~output_o $end
$var wire 1 7 ck~input_o $end
$var wire 1 8 ck~inputclkctrl_outclk $end
$var wire 1 9 d[0]~input_o $end
$var wire 1 : ff0|q~feeder_combout $end
$var wire 1 ; rst~input_o $end
$var wire 1 < rst~inputclkctrl_outclk $end
$var wire 1 = ff0|q~q $end
$var wire 1 > d[1]~input_o $end
$var wire 1 ? ff1|q~feeder_combout $end
$var wire 1 @ ff1|q~q $end
$var wire 1 A d[2]~input_o $end
$var wire 1 B ff2|q~q $end
$var wire 1 C d[3]~input_o $end
$var wire 1 D ff3|q~feeder_combout $end
$var wire 1 E ff3|q~q $end
$var wire 1 F d[4]~input_o $end
$var wire 1 G ff4|q~feeder_combout $end
$var wire 1 H ff4|q~q $end
$var wire 1 I d[5]~input_o $end
$var wire 1 J ff5|q~q $end
$upscope $end
$upscope $end
$enddefinitions $end
#0
$dumpvars
0!
b1 "
1#
0)
0(
0'
0&
0%
0$
x*
0+
1,
x-
1.
1/
10
01
02
03
04
05
06
07
08
19
1:
1;
1<
0=
0>
0?
0@
0A
0B
0C
0D
0E
0F
0G
0H
0I
0J
$end
#40000
1!
17
18
0*
1=
11
1)
#80000
0!
07
08
1*
#100000
0#
0;
0<
0*
0=
01
0)
#110000
1#
1;
1<
1*
#140000
b11 "
b10 "
09
1>
0*
0:
1?
#160000
1!
17
18
1*
1@
12
1(
#200000
0!
07
08
0*
#270000
b11 "
19
1*
1:
#310000
1!
17
18
0*
1=
11
1)
#340000
0!
07
08
1*
#390000
0#
0;
0<
0*
0@
0=
02
01
0(
0)
#420000
1#
1;
1<
1*
#430000
b111 "
b101 "
b100 "
09
0>
1A
0*
0:
0?
#570000
b0 "
0A
1*
