dff_behavioral/simulation/qsim/dff_behavioral.msim.vcd
$comment
	File created using the following command:
		vcd file dff_behavioral.msim.vcd -direction
$end
$date
	Thu Sep 06 10:36:39 2018
$end
$version
	ModelSim Version 10.1d
$end
$timescale
	1ps
$end
$scope module dff_behavioral_vlg_vec_tst $end
$var reg 1 ! ck $end
$var reg 1 " d $end
$var reg 1 # rst $end
$var wire 1 $ q $end
$var wire 1 % sampler $end
$scope module i1 $end
$var wire 1 & gnd $end
$var wire 1 ' vcc $end
$var wire 1 ( unknown $end
$var tri1 1 ) devclrn $end
$var tri1 1 * devpor $end
$var tri1 1 + devoe $end
$var wire 1 , q~output_o $end
$var wire 1 - ck~input_o $end
$var wire 1 . d~input_o $end
$var wire 1 / q~reg0feeder_combout $end
$var wire 1 0 rst~input_o $end
$var wire 1 1 q~reg0_q $end
$upscope $end
$upscope $end
$enddefinitions $end
#0
$dumpvars
0!
0"
1#
0$
x%
0&
1'
x(
1)
1*
1+
0,
0-
0.
0/
10
01
$end
#20000
1!
1-
0%
#60000
0!
0-
1%
#70000
0#
00
0%
#80000
1"
1#
1.
10
1%
1/
#120000
1!
1-
0%
11
1,
1$
#150000
0"
0.
1%
0/
#160000
0#
00
0%
01
0,
0$
#170000
0!
0-
1%
#180000
1#
10
0%
#230000
1!
1-
1%
#270000
1"
1.
0%
1/
#300000
0!
0-
1%
#320000
0"
0.
0%
0/
#430000
1"
1.
1%
1/
#500000
0"
0.
0%
0/
