exercicio02_modified/simulation/qsim/exercicio02_modified.msim.vcd
$comment
	File created using the following command:
		vcd file exercicio02_modified.msim.vcd -direction
$end
$date
	Thu Sep 20 16:30:43 2018
$end
$version
	ModelSim Version 10.1d
$end
$timescale
	1ps
$end
$scope module exercicio02_modified_vlg_vec_tst $end
$var reg 4 ! data [3:0] $end
$var reg 1 " enter $end
$var wire 1 # s [3] $end
$var wire 1 $ s [2] $end
$var wire 1 % s [1] $end
$var wire 1 & s [0] $end
$var wire 1 ' sampler $end
$scope module i1 $end
$var wire 1 ( gnd $end
$var wire 1 ) vcc $end
$var wire 1 * unknown $end
$var tri1 1 + devclrn $end
$var tri1 1 , devpor $end
$var tri1 1 - devoe $end
$var wire 1 . s[0]~output_o $end
$var wire 1 / s[1]~output_o $end
$var wire 1 0 s[2]~output_o $end
$var wire 1 1 s[3]~output_o $end
$var wire 1 2 enter~input_o $end
$var wire 1 3 enter~inputclkctrl_outclk $end
$var wire 1 4 data[0]~input_o $end
$var wire 1 5 s[0]~reg0_q $end
$var wire 1 6 data[1]~input_o $end
$var wire 1 7 s[1]~reg0feeder_combout $end
$var wire 1 8 s[1]~reg0_q $end
$var wire 1 9 data[2]~input_o $end
$var wire 1 : s[2]~reg0feeder_combout $end
$var wire 1 ; s[2]~reg0_q $end
$var wire 1 < data[3]~input_o $end
$var wire 1 = s[3]~reg0feeder_combout $end
$var wire 1 > s[3]~reg0_q $end
$upscope $end
$upscope $end
$enddefinitions $end
#0
$dumpvars
b1 !
0"
0&
0%
0$
0#
x'
0(
1)
x*
1+
1,
1-
0.
0/
00
01
02
03
14
05
06
07
08
09
0:
0;
0<
0=
0>
$end
#90000
1"
12
13
0'
15
1.
1&
#160000
b11 !
b10 !
04
16
1'
17
#200000
0"
02
03
0'
#260000
1"
12
13
1'
18
05
1/
0.
1%
0&
#300000
b110 !
b100 !
06
19
0'
07
1:
#330000
0"
02
03
1'
#390000
1"
12
13
0'
1;
08
10
0/
1$
0%
#430000
b1100 !
b1000 !
09
1<
1'
0:
1=
#470000
0"
02
03
0'
#520000
1"
12
13
1'
1>
0;
11
00
1#
0$
#550000
b100x !
b10xx !
bx0xx !
bx !
x4
x6
x9
x<
0'
x7
x:
x=
#610000
0"
02
03
1'
