Mux2x1x10_structural/simulation/qsim/Mux2x1x10.msim.vcd
$comment
	File created using the following command:
		vcd file Mux2x1x10.msim.vcd -direction
$end
$date
	Thu Sep 06 15:19:34 2018
$end
$version
	ModelSim Version 10.1d
$end
$timescale
	1ps
$end
$scope module Mux2x1x10_vlg_vec_tst $end
$var reg 1 ! c $end
$var reg 10 " e0 [9:0] $end
$var reg 10 # e1 [9:0] $end
$var wire 1 $ s [9] $end
$var wire 1 % s [8] $end
$var wire 1 & s [7] $end
$var wire 1 ' s [6] $end
$var wire 1 ( s [5] $end
$var wire 1 ) s [4] $end
$var wire 1 * s [3] $end
$var wire 1 + s [2] $end
$var wire 1 , s [1] $end
$var wire 1 - s [0] $end
$var wire 1 . sampler $end
$scope module i1 $end
$var wire 1 / gnd $end
$var wire 1 0 vcc $end
$var wire 1 1 unknown $end
$var tri1 1 2 devclrn $end
$var tri1 1 3 devpor $end
$var tri1 1 4 devoe $end
$var wire 1 5 s[0]~output_o $end
$var wire 1 6 s[1]~output_o $end
$var wire 1 7 s[2]~output_o $end
$var wire 1 8 s[3]~output_o $end
$var wire 1 9 s[4]~output_o $end
$var wire 1 : s[5]~output_o $end
$var wire 1 ; s[6]~output_o $end
$var wire 1 < s[7]~output_o $end
$var wire 1 = s[8]~output_o $end
$var wire 1 > s[9]~output_o $end
$var wire 1 ? e1[0]~input_o $end
$var wire 1 @ e0[0]~input_o $end
$var wire 1 A c~input_o $end
$var wire 1 B s_s~0_combout $end
$var wire 1 C e1[1]~input_o $end
$var wire 1 D e0[1]~input_o $end
$var wire 1 E s_s~1_combout $end
$var wire 1 F e1[2]~input_o $end
$var wire 1 G e0[2]~input_o $end
$var wire 1 H s_s~2_combout $end
$var wire 1 I e1[3]~input_o $end
$var wire 1 J e0[3]~input_o $end
$var wire 1 K s_s~3_combout $end
$var wire 1 L e1[4]~input_o $end
$var wire 1 M e0[4]~input_o $end
$var wire 1 N s_s~4_combout $end
$var wire 1 O e0[5]~input_o $end
$var wire 1 P e1[5]~input_o $end
$var wire 1 Q s_s~5_combout $end
$var wire 1 R e1[6]~input_o $end
$var wire 1 S e0[6]~input_o $end
$var wire 1 T s_s~6_combout $end
$var wire 1 U e0[7]~input_o $end
$var wire 1 V e1[7]~input_o $end
$var wire 1 W s_s~7_combout $end
$var wire 1 X e0[8]~input_o $end
$var wire 1 Y e1[8]~input_o $end
$var wire 1 Z s_s~8_combout $end
$var wire 1 [ e0[9]~input_o $end
$var wire 1 \ e1[9]~input_o $end
$var wire 1 ] s_s~9_combout $end
$upscope $end
$upscope $end
$enddefinitions $end
#0
$dumpvars
1!
b1111 "
b1 #
1-
0,
0+
0*
0)
0(
0'
0&
0%
0$
x.
0/
10
x1
12
13
14
15
06
07
08
09
0:
0;
0<
0=
0>
1?
1@
1A
1B
0C
1D
0E
0F
1G
0H
0I
1J
0K
0L
0M
0N
0O
0P
0Q
0R
0S
0T
0U
0V
0W
0X
0Y
0Z
0[
0\
0]
$end
#40000
0!
0A
0.
1K
1H
1E
18
17
16
1*
1+
1,
#70000
b11 #
b10 #
0?
1C
1.
#140000
1!
1A
0.
0K
0H
0B
08
07
05
0*
0+
0-
#190000
b0 #
0C
1.
0E
06
0,
#230000
0!
0A
0.
1K
1H
1E
1B
18
17
16
15
1*
1+
1,
1-
#270000
b100 #
b101 #
1?
1F
1.
#340000
1!
1A
0.
0K
0E
08
06
0*
0,
#360000
b1101 #
b1111 #
b1011 #
b1010 #
0?
1C
0F
1I
1.
0B
1E
0H
1K
05
16
07
18
0-
1,
0+
1*
#390000
0!
0A
0.
1H
1B
17
15
1+
1-
#410000
1!
1A
1.
0H
0B
07
05
0+
0-
#450000
b1110 #
b1111 #
1?
1F
0.
1B
1H
15
17
1-
1+
#480000
0!
0A
1.
#500000
bz000001111 "
bz00001111 "
bz0001111 "
bz001111 "
bz01111 "
bz1111 "
bz111 "
bz11 "
bz1 "
bz "
bz000001111 #
bz00001111 #
bz0001111 #
bz001111 #
bz01111 #
bz1111 #
bz111 #
bz1z1 #
bz1 #
bz #
z?
zC
zF
zI
zL
zP
zR
zV
zY
z\
z@
zD
zG
zJ
zM
zO
zS
zU
zX
z[
0.
xB
xE
xH
xK
xN
xQ
xT
xW
xZ
x]
x5
x6
x7
x8
x9
x:
x;
x<
x=
x>
x-
x,
x+
x*
x)
x(
x'
x&
x%
x$
#530000
1!
1A
1.
#560000
0!
0A
0.
