exercicio02_mod/simulation/qsim/e2mod.msim.vcd
$comment
	File created using the following command:
		vcd file e2mod.msim.vcd -direction
$end
$date
	Sat Oct 06 12:39:16 2018
$end
$version
	ModelSim Version 10.1d
$end
$timescale
	1ps
$end
$scope module e2mod_vlg_vec_tst $end
$var reg 10 ! data [9:0] $end
$var reg 1 " enter $end
$var wire 1 # s [9] $end
$var wire 1 $ s [8] $end
$var wire 1 % s [7] $end
$var wire 1 & s [6] $end
$var wire 1 ' s [5] $end
$var wire 1 ( s [4] $end
$var wire 1 ) s [3] $end
$var wire 1 * s [2] $end
$var wire 1 + s [1] $end
$var wire 1 , s [0] $end
$var wire 1 - sampler $end
$scope module i1 $end
$var wire 1 . gnd $end
$var wire 1 / vcc $end
$var wire 1 0 unknown $end
$var tri1 1 1 devclrn $end
$var tri1 1 2 devpor $end
$var tri1 1 3 devoe $end
$var wire 1 4 s[0]~output_o $end
$var wire 1 5 s[1]~output_o $end
$var wire 1 6 s[2]~output_o $end
$var wire 1 7 s[3]~output_o $end
$var wire 1 8 s[4]~output_o $end
$var wire 1 9 s[5]~output_o $end
$var wire 1 : s[6]~output_o $end
$var wire 1 ; s[7]~output_o $end
$var wire 1 < s[8]~output_o $end
$var wire 1 = s[9]~output_o $end
$var wire 1 > data[0]~input_o $end
$var wire 1 ? enter~input_o $end
$var wire 1 @ enter~inputclkctrl_outclk $end
$var wire 1 A s[0]$latch~combout $end
$var wire 1 B data[1]~input_o $end
$var wire 1 C s[1]$latch~combout $end
$var wire 1 D data[2]~input_o $end
$var wire 1 E s[2]$latch~combout $end
$var wire 1 F data[3]~input_o $end
$var wire 1 G s[3]$latch~combout $end
$var wire 1 H data[4]~input_o $end
$var wire 1 I s[4]$latch~combout $end
$var wire 1 J data[5]~input_o $end
$var wire 1 K s[5]$latch~combout $end
$var wire 1 L data[6]~input_o $end
$var wire 1 M s[6]$latch~combout $end
$var wire 1 N data[7]~input_o $end
$var wire 1 O s[7]$latch~combout $end
$var wire 1 P data[8]~input_o $end
$var wire 1 Q s[8]$latch~combout $end
$var wire 1 R data[9]~input_o $end
$var wire 1 S s[9]$latch~combout $end
$upscope $end
$upscope $end
$enddefinitions $end
#0
$dumpvars
b0 !
0"
x,
x+
x*
x)
x(
x'
x&
x%
x$
x#
x-
0.
1/
x0
11
12
13
x4
x5
x6
x7
x8
x9
x:
x;
x<
x=
0>
0?
0@
xA
0B
xC
0D
xE
0F
xG
0H
xI
0J
xK
0L
xM
0N
xO
0P
xQ
0R
xS
$end
#50000
b1000000000 !
b1100000000 !
b1100000001 !
1>
1P
1R
0-
#110000
1"
1?
1@
1-
1S
1Q
0O
0M
0K
0I
0G
0E
0C
1A
1=
1<
0;
0:
09
08
07
06
05
14
1#
1$
0%
0&
0'
0(
0)
0*
0+
1,
#150000
b1110000001 !
b1111000001 !
b1111100001 !
b1111110001 !
b1111111001 !
b1111111101 !
b1111111111 !
1B
1D
1F
1H
1J
1L
1N
0-
1C
1E
1G
1I
1K
1M
1O
15
16
17
18
19
1:
1;
1+
1*
1)
1(
1'
1&
1%
#240000
0"
0?
0@
1-
#350000
1"
1?
1@
0-
#370000
b111111111 !
b11111111 !
b11111110 !
b1111110 !
b111110 !
b11110 !
b1110 !
b110 !
b10 !
b0 !
0>
0B
0D
0F
0H
0J
0L
0N
0P
0R
1-
0A
0C
0E
0G
0I
0K
0M
0O
0Q
0S
04
05
06
07
08
09
0:
0;
0<
0=
0,
0+
0*
0)
0(
0'
0&
0%
0$
0#
#400000
b1 !
b1001 !
b1101 !
b1111 !
1>
1B
1D
1F
0-
1A
1C
1E
1G
14
15
16
17
1,
1+
1*
1)
#420000
0"
0?
0@
1-
#470000
b1110 !
b110 !
b10 !
b0 !
0>
0B
0D
0F
0-
